<?xml version="1.0" encoding="UTF-8" standalone="no"?>
<!-- Generator: Adobe Illustrator 19.0.0, SVG Export Plug-In . SVG Version: 6.00 Build 0)  -->

<svg
   xmlns:dc="http://purl.org/dc/elements/1.1/"
   xmlns:cc="http://creativecommons.org/ns#"
   xmlns:rdf="http://www.w3.org/1999/02/22-rdf-syntax-ns#"
   xmlns:svg="http://www.w3.org/2000/svg"
   xmlns="http://www.w3.org/2000/svg"
   xmlns:sodipodi="http://sodipodi.sourceforge.net/DTD/sodipodi-0.dtd"
   xmlns:inkscape="http://www.inkscape.org/namespaces/inkscape"
   version="1.1"
   id="Layer_1"
   x="0px"
   y="0px"
   viewBox="0 0 200 200"
   xml:space="preserve"
   sodipodi:docname="living-room.svg"
   width="200"
   height="200"
   inkscape:version="0.92.3 (2405546, 2018-03-11)"><metadata
   id="metadata121"><rdf:RDF><cc:Work
       rdf:about=""><dc:format>image/svg+xml</dc:format><dc:type
         rdf:resource="http://purl.org/dc/dcmitype/StillImage" /><dc:title></dc:title></cc:Work></rdf:RDF></metadata><defs
   id="defs119" /><sodipodi:namedview
   pagecolor="#ffffff"
   bordercolor="#666666"
   borderopacity="1"
   objecttolerance="10"
   gridtolerance="10"
   guidetolerance="10"
   inkscape:pageopacity="0"
   inkscape:pageshadow="2"
   inkscape:window-width="1920"
   inkscape:window-height="1027"
   id="namedview117"
   showgrid="false"
   fit-margin-top="0"
   fit-margin-left="0"
   fit-margin-right="0"
   fit-margin-bottom="0"
   inkscape:zoom="0.4609375"
   inkscape:cx="-46.997068"
   inkscape:cy="256"
   inkscape:window-x="-8"
   inkscape:window-y="-8"
   inkscape:window-maximized="1"
   inkscape:current-layer="Layer_1" />
<g
   id="g6"
   transform="matrix(0.39116361,0,0,0.390625,-0.13808075,0)">
	<g
   id="g4">
		<path
   d="m 296.5,496.358 v -25.212 h 10e-4 c 13.219,-2.138 23.347,-13.625 23.347,-27.438 0,-9.635 -4.929,-18.139 -12.396,-23.129 7.627,-7.253 12.396,-17.485 12.396,-28.817 0,-19.262 -13.76,-35.368 -31.966,-39.011 v -36.878 c 0,-19.752 -16.07,-35.822 -35.823,-35.822 H 68.314 c -19.752,0 -35.823,16.07 -35.823,35.822 v 36.878 C 14.285,356.395 0.524,372.5 0.524,391.762 c 0,11.332 4.77,21.563 12.396,28.817 -7.467,4.99 -12.396,13.492 -12.396,23.129 0,13.975 10.367,25.57 23.813,27.509 v 25.141 H 0.353 V 512 H 511.31 V 496.358 Z M 280.06,367.617 c 13.314,0 24.145,10.832 24.145,24.145 0,13.314 -10.831,24.145 -24.145,24.145 -13.314,0 -24.145,-10.832 -24.145,-24.145 0,-13.313 10.831,-24.145 24.145,-24.145 z M 48.134,315.874 c 0,-11.128 9.053,-20.181 20.182,-20.181 h 183.743 c 11.128,0 20.182,9.053 20.182,20.181 v 36.878 c -18.206,3.643 -31.966,19.749 -31.966,39.011 0,9.075 3.061,17.445 8.194,24.145 H 71.906 c 5.134,-6.702 8.194,-15.071 8.194,-24.145 0,-19.262 -13.76,-35.368 -31.966,-39.011 z m -7.821,51.743 c 13.314,0 24.145,10.832 24.145,24.145 0,13.314 -10.831,24.145 -24.145,24.145 -13.314,0 -24.146,-10.832 -24.146,-24.145 0,-13.313 10.832,-24.145 24.146,-24.145 z M 280.859,496.358 H 39.979 v -24.851 h 240.88 z M 28.325,455.866 c -6.704,0 -12.159,-5.454 -12.159,-12.158 0,-6.704 5.454,-12.158 12.159,-12.158 h 263.723 c 6.704,0 12.159,5.454 12.159,12.158 0,6.704 -5.454,12.158 -12.159,12.158 z"
   id="path2"
   inkscape:connector-curvature="0" />
	</g>
</g>
<g
   id="g12"
   transform="matrix(0.39116361,0,0,0.390625,-0.13808075,0)">
	<g
   id="g10">
		<rect
   x="87.947998"
   y="335.772"
   width="15.642"
   height="15.642"
   id="rect8" />
	</g>
</g>
<g
   id="g18"
   transform="matrix(0.39116361,0,0,0.390625,-0.13808075,0)">
	<g
   id="g16">
		<rect
   x="216.20799"
   y="335.772"
   width="15.642"
   height="15.642"
   id="rect14" />
	</g>
</g>
<g
   id="g24"
   transform="matrix(0.39116361,0,0,0.390625,-0.13808075,0)">
	<g
   id="g22">
		<rect
   x="32.681"
   y="383.73901"
   width="15.642"
   height="15.642"
   id="rect20" />
	</g>
</g>
<g
   id="g30"
   transform="matrix(0.39116361,0,0,0.390625,-0.13808075,0)">
	<g
   id="g28">
		<rect
   x="271.47501"
   y="383.73901"
   width="16.684"
   height="15.642"
   id="rect26" />
	</g>
</g>
<g
   id="g36"
   transform="matrix(0.39116361,0,0,0.390625,-0.13808075,0)">
	<g
   id="g34">
		<path
   d="M 504.013,223.886 V 165.8 h -10e-4 -87.593 v 58.085 h -57.352 v -59.128 h -86.55 v 59.128 h -32.243 v 39.616 h 271.374 v -39.616 h -7.635 z m -23.985,-42.444 h 8.342 v 40.668 h -8.342 z m -23.984,0 h 8.342 v 40.668 h -8.342 z m -23.983,0 h 8.342 v 40.668 h -8.342 z m -95.935,-1.043 h 7.299 v 40.668 h -7.299 z m -23.984,0 h 8.342 v 40.668 h -8.342 z m -23.984,0 h 8.342 v 40.668 h -8.342 z M 496.006,247.86 H 255.915 v -8.333 h 240.091 z"
   id="path32"
   inkscape:connector-curvature="0" />
	</g>
</g>
<g
   id="g42"
   transform="matrix(0.39116361,0,0,0.390625,-0.13808075,0)">
	<g
   id="g40">
		<path
   d="m 464.387,359.616 v -23.844 h -57.352 v -32.326 h -86.55 v 72.145 l 86.487,-0.194 h 0.064 l 88.97,-0.216 v 8.314 H 328.01 v 15.642 h 183.636 v -39.636 z m -120.962,0.14 h -7.299 v -40.668 h 7.299 z m 25.027,0 h -9.385 v -40.668 h 9.385 z m 22.941,0 h -7.299 v -40.668 h 7.299 z m 57.352,-0.103 -41.711,0.101 v -8.342 h 41.711 z"
   id="path38"
   inkscape:connector-curvature="0" />
	</g>
</g>
<g
   id="g48"
   transform="matrix(0.39116361,0,0,0.390625,-0.13808075,0)">
	<g
   id="g46">
		<rect
   x="359.06799"
   y="56.310001"
   width="16.684"
   height="15.642"
   id="rect44" />
	</g>
</g>
<g
   id="g54"
   transform="matrix(0.39116361,0,0,0.390625,-0.13808075,0)">
	<g
   id="g52">
		<path
   d="m 480.028,88.252 v -23.6 h -56.29 V 32.31 h -111.54 v 55.94 h -71.925 v 39.617 H 511.647 V 88.252 Z m -56.29,-7.959 h 40.648 v 7.958 H 423.738 Z M 327.84,71.951 h 23.928 V 56.31 H 327.84 v -8.358 h 80.258 v 8.358 h -24.004 v 15.642 h 24.004 V 88.253 H 327.84 Z m 168.166,40.276 H 255.915 v -8.334 h 240.091 z"
   id="path50"
   inkscape:connector-curvature="0" />
	</g>
</g>
<g
   id="g60"
   transform="matrix(0.39116361,0,0,0.390625,-0.13808075,0)">
	<g
   id="g58">
		<rect
   x="80.648003"
   y="167.886"
   width="127.218"
   height="15.642"
   id="rect56" />
	</g>
</g>
<g
   id="g66"
   transform="matrix(0.39116361,0,0,0.390625,-0.13808075,0)">
	<g
   id="g64">
		<rect
   x="135.91499"
   width="15.642"
   height="32.326"
   id="rect62"
   y="0" />
	</g>
</g>
<g
   id="g72"
   transform="matrix(0.39116361,0,0,0.390625,-0.13808075,0)">
	<g
   id="g70">
		<path
   d="m 151.556,48.779 v -9.153 h -15.642 v 9.285 c -27.107,4.004 -47.967,27.21 -47.967,55.154 v 56.522 h 15.642 v -8.342 h 16.684 v -15.642 h -16.684 v -32.539 c 0,-22.128 18.243,-40.128 40.668,-40.128 22.425,0 40.668,18.001 40.668,40.128 v 32.539 H 168.24 v 15.642 h 16.684 v 8.342 h 15.642 v -56.522 c 0,-28.3 -21.399,-51.728 -49.01,-55.286 z"
   id="path68"
   inkscape:connector-curvature="0" />
	</g>
</g>
<g
   id="g78"
   transform="matrix(0.39116361,0,0,0.390625,-0.13808075,0)">
	<g
   id="g76">
		<rect
   x="128.616"
   y="136.603"
   width="32.326"
   height="15.642"
   id="rect74" />
	</g>
</g>
<g
   id="g84"
   transform="matrix(0.39116361,0,0,0.390625,-0.13808075,0)">
	<g
   id="g82">
		<rect
   x="135.91499"
   y="191.87"
   width="16.684"
   height="15.642"
   id="rect80" />
	</g>
</g>
<g
   id="g86"
   transform="matrix(0.39116361,0,0,0.390625,-0.13808075,0)">
</g>
<g
   id="g88"
   transform="matrix(0.39116361,0,0,0.390625,-0.13808075,0)">
</g>
<g
   id="g90"
   transform="matrix(0.39116361,0,0,0.390625,-0.13808075,0)">
</g>
<g
   id="g92"
   transform="matrix(0.39116361,0,0,0.390625,-0.13808075,0)">
</g>
<g
   id="g94"
   transform="matrix(0.39116361,0,0,0.390625,-0.13808075,0)">
</g>
<g
   id="g96"
   transform="matrix(0.39116361,0,0,0.390625,-0.13808075,0)">
</g>
<g
   id="g98"
   transform="matrix(0.39116361,0,0,0.390625,-0.13808075,0)">
</g>
<g
   id="g100"
   transform="matrix(0.39116361,0,0,0.390625,-0.13808075,0)">
</g>
<g
   id="g102"
   transform="matrix(0.39116361,0,0,0.390625,-0.13808075,0)">
</g>
<g
   id="g104"
   transform="matrix(0.39116361,0,0,0.390625,-0.13808075,0)">
</g>
<g
   id="g106"
   transform="matrix(0.39116361,0,0,0.390625,-0.13808075,0)">
</g>
<g
   id="g108"
   transform="matrix(0.39116361,0,0,0.390625,-0.13808075,0)">
</g>
<g
   id="g110"
   transform="matrix(0.39116361,0,0,0.390625,-0.13808075,0)">
</g>
<g
   id="g112"
   transform="matrix(0.39116361,0,0,0.390625,-0.13808075,0)">
</g>
<g
   id="g114"
   transform="matrix(0.39116361,0,0,0.390625,-0.13808075,0)">
</g>
</svg>